%YAML 1.1
%TAG !u! tag:unity3d.com,2011:
--- !u!114 &11400000
MonoBehaviour:
  m_ObjectHideFlags: 0
  m_CorrespondingSourceObject: {fileID: 0}
  m_PrefabInstance: {fileID: 0}
  m_PrefabAsset: {fileID: 0}
  m_GameObject: {fileID: 0}
  m_Enabled: 1
  m_EditorHideFlags: 0
  m_Script: {fileID: 11500000, guid: 57eb74286de371b4fa320de4e987e2f9, type: 3}
  m_Name: Pistol
  m_EditorClassIdentifier: 
  _numOfBullets: 0
  _intervalOfFire: 0
  _automatic: 0
